<?xml version="1.0" encoding="UTF-8" standalone="no"?>
<!-- Created with Inkscape (http://www.inkscape.org/) -->

<svg
   xmlns:dc="http://purl.org/dc/elements/1.1/"
   xmlns:cc="http://creativecommons.org/ns#"
   xmlns:rdf="http://www.w3.org/1999/02/22-rdf-syntax-ns#"
   xmlns:svg="http://www.w3.org/2000/svg"
   xmlns="http://www.w3.org/2000/svg"
   xmlns:sodipodi="http://sodipodi.sourceforge.net/DTD/sodipodi-0.dtd"
   xmlns:inkscape="http://www.inkscape.org/namespaces/inkscape"
   width="400"
   height="360"
   viewBox="0 0 400 360"
   version="1.1"
   id="svg8"
   inkscape:version="0.92.2 5c3e80d, 2017-08-06"
   sodipodi:docname="hot liquid.svg">
  <defs
     id="defs2" />
  <sodipodi:namedview
     id="base"
     pagecolor="#ffffff"
     bordercolor="#666666"
     borderopacity="1.0"
     inkscape:pageopacity="0.0"
     inkscape:pageshadow="2"
     inkscape:zoom="1.1200571"
     inkscape:cx="200.36971"
     inkscape:cy="190.82965"
     inkscape:document-units="px"
     inkscape:current-layer="layer1"
     showgrid="false"
     units="px"
     inkscape:window-width="1680"
     inkscape:window-height="1005"
     inkscape:window-x="0"
     inkscape:window-y="1"
     inkscape:window-maximized="1" />
  <metadata
     id="metadata5">
    <rdf:RDF>
      <cc:Work
         rdf:about="">
        <dc:format>image/svg+xml</dc:format>
        <dc:type
           rdf:resource="http://purl.org/dc/dcmitype/StillImage" />
        <dc:title></dc:title>
      </cc:Work>
    </rdf:RDF>
  </metadata>
  <g
     inkscape:label="Layer 1"
     inkscape:groupmode="layer"
     id="layer1"
     transform="translate(0,-304.70832)">
    <path
       inkscape:connector-curvature="0"
       style="opacity:1;fill:#467abf;fill-opacity:1;stroke:#000000;stroke-width:0.99999994;stroke-linejoin:bevel;stroke-miterlimit:4;stroke-dasharray:none;stroke-opacity:1"
       d="M 118.04157,378.87308 A 39.5,39.5 0 0 1 71.614432,409.93787 39.5,39.5 0 0 1 40.549646,363.51073 39.5,39.5 0 0 1 86.976783,332.44595 39.5,39.5 0 0 1 118.04157,378.87308 Z"
       id="path6465" />
    <path
       style="fill:none;stroke:#000000;stroke-width:1px;stroke-linecap:butt;stroke-linejoin:miter;stroke-opacity:1"
       d="m 119.6419,360.30428 c 1.84566,5.15465 2.25775,6.65808 2.783,9.9868 0.2507,1.58877 0.23502,3.16737 0.17044,4.73148 -0.0604,1.46307 -0.24392,2.91204 -0.52134,4.34018 -0.24959,1.28423 -0.60156,2.54931 -1.02622,3.79343 -0.38203,1.1192 -0.84388,2.21828 -1.36678,3.29617 -0.49898,1.02861 -1.06485,2.03633 -1.68716,3.02113 -0.59982,0.94919 -1.22375,1.8925 -1.97002,2.77895 -1.01458,1.20517 -3.39716,3.43865 -3.39716,3.43865"
       id="path6467"
       inkscape:connector-curvature="0"
       sodipodi:nodetypes="csssssssc" />
    <path
       sodipodi:nodetypes="csssssssc"
       inkscape:connector-curvature="0"
       id="path6469"
       d="m 123.28272,363.55524 c 1.13671,4.36732 1.37931,5.64514 1.64364,8.48662 0.12616,1.35621 0.0649,2.71217 -0.0303,4.05722 -0.0891,1.25816 -0.26442,2.50815 -0.50528,3.74321 -0.21661,1.11065 -0.50489,2.20807 -0.84367,3.28981 -0.30476,0.97312 -0.66513,1.93152 -1.06783,2.87366 -0.38429,0.89907 -0.81504,1.78232 -1.28485,2.64768 -0.45281,0.83407 -0.92243,1.66385 -1.47645,2.44871 -0.75321,1.06705 -2.50304,3.06052 -2.50304,3.06052"
       style="fill:none;stroke:#000000;stroke-width:1px;stroke-linecap:butt;stroke-linejoin:miter;stroke-opacity:1" />
    <path
       style="fill:none;stroke:#000000;stroke-width:1px;stroke-linecap:butt;stroke-linejoin:miter;stroke-opacity:1"
       d="m 126.61136,366.53788 c 0.77622,3.77299 0.93445,4.87885 1.07574,7.34386 0.0674,1.17653 -0.009,2.35685 -0.11032,3.52843 -0.0953,1.09587 -0.25616,2.18655 -0.46724,3.26558 -0.19011,0.97029 -0.43393,1.93078 -0.71641,2.87864 -0.25415,0.8527 -0.55058,1.69376 -0.87903,2.52161 -0.31341,0.79001 -0.66213,1.56724 -1.04032,2.32978 -0.36449,0.73496 -0.74176,1.46654 -1.18268,2.16087 -0.59943,0.944 -1.98158,2.71493 -1.98158,2.71493"
       id="path6471"
       inkscape:connector-curvature="0"
       sodipodi:nodetypes="csssssssc" />
    <path
       inkscape:connector-curvature="0"
       style="opacity:1;fill:#467abf;fill-opacity:1;stroke:#000000;stroke-width:0.99999994;stroke-linejoin:bevel;stroke-miterlimit:4;stroke-dasharray:none;stroke-opacity:1"
       d="m 49.682357,438.96863 a 39.5,39.5 0 0 1 47.446311,-29.48471 39.5,39.5 0 0 1 29.484702,47.44632 39.5,39.5 0 0 1 -47.446312,29.4847 39.5,39.5 0 0 1 -29.484701,-47.44631 z"
       id="path6475" />
    <path
       style="fill:none;stroke:#000000;stroke-width:1px;stroke-linecap:butt;stroke-linejoin:miter;stroke-opacity:1"
       d="m 47.458015,457.47305 c -1.671136,-5.21384 -2.0324,-6.7303 -2.445327,-10.0748 -0.197087,-1.59631 -0.128283,-3.17349 -0.01111,-4.73454 0.109609,-1.4602 0.341784,-2.90218 0.66711,-4.32017 0.292675,-1.2751 0.687019,-2.52763 1.153312,-3.75675 0.419473,-1.10571 0.918057,-2.18862 1.476929,-3.2483 0.533321,-1.01124 1.132778,-1.99935 1.787883,-2.96264 0.631424,-0.92846 1.286742,-1.85024 2.062424,-2.71107 1.054564,-1.17035 3.510966,-3.32237 3.510966,-3.32237"
       id="path6477"
       inkscape:connector-curvature="0"
       sodipodi:nodetypes="csssssssc" />
    <path
       sodipodi:nodetypes="csssssssc"
       inkscape:connector-curvature="0"
       id="path6479"
       d="m 43.928661,454.10141 c -0.989083,-4.40311 -1.188541,-5.68837 -1.357087,-8.53714 -0.08045,-1.35968 0.02637,-2.71281 0.166791,-4.0539 0.131355,-1.25445 0.34868,-2.49783 0.630972,-3.72408 0.253868,-1.10273 0.578916,-2.18983 0.953908,-3.25956 0.337338,-0.96231 0.729754,-1.90804 1.163935,-2.83609 0.414333,-0.88563 0.874568,-1.75388 1.373227,-2.60294 0.480633,-0.81836 0.977908,-1.63187 1.558028,-2.39763 0.788695,-1.0411 2.604627,-2.97455 2.604627,-2.97455"
       style="fill:none;stroke:#000000;stroke-width:1px;stroke-linecap:butt;stroke-linejoin:miter;stroke-opacity:1" />
    <path
       style="fill:none;stroke:#000000;stroke-width:1px;stroke-linecap:butt;stroke-linejoin:miter;stroke-opacity:1"
       d="m 40.702294,451.00843 c -0.648805,-3.79698 -0.769731,-4.90754 -0.827976,-7.37591 -0.02778,-1.17813 0.08789,-2.35523 0.229005,-3.52272 0.132175,-1.09204 0.329596,-2.17669 0.576875,-3.248 0.222657,-0.96334 0.498666,-1.91508 0.812877,-2.8529 0.28271,-0.84366 0.607278,-1.67427 0.963396,-2.4906 0.339821,-0.77901 0.714504,-1.54407 1.118141,-2.29344 0.389023,-0.72228 0.790698,-1.44075 1.254732,-2.11985 0.630865,-0.92329 2.071834,-2.6467 2.071834,-2.6467"
       id="path6481"
       inkscape:connector-curvature="0"
       sodipodi:nodetypes="csssssssc" />
    <path
       inkscape:connector-curvature="0"
       style="opacity:1;fill:#467abf;fill-opacity:1;stroke:#000000;stroke-width:0.99999994;stroke-linejoin:bevel;stroke-miterlimit:4;stroke-dasharray:none;stroke-opacity:1"
       d="m 91.227299,542.86378 a 39.5,39.5 0 0 1 -44.51881,33.74279 39.5,39.5 0 0 1 -33.742785,-44.51881 39.5,39.5 0 0 1 44.51881,-33.74279 39.5,39.5 0 0 1 33.742785,44.51881 z"
       id="path6485" />
    <path
       style="fill:none;stroke:#000000;stroke-width:1px;stroke-linecap:butt;stroke-linejoin:miter;stroke-opacity:1"
       d="m 91.73224,524.23299 c 2.145767,5.03711 2.645612,6.5137 3.365818,9.80574 0.343748,1.57126 0.420977,3.14806 0.448548,4.71326 0.02579,1.46408 -0.07215,2.92134 -0.265055,4.36332 -0.173598,1.2967 -0.450517,2.5803 -0.801238,3.84725 -0.315507,1.13974 -0.711893,2.26409 -1.170455,3.37088 -0.437596,1.05619 -0.943184,2.09546 -1.506474,3.11517 -0.542928,0.98284 -1.110267,1.96122 -1.803085,2.89005 -0.941908,1.26278 -3.188945,3.63258 -3.188945,3.63258"
       id="path6487"
       inkscape:connector-curvature="0"
       sodipodi:nodetypes="csssssssc" />
    <path
       sodipodi:nodetypes="csssssssc"
       inkscape:connector-curvature="0"
       id="path6489"
       d="m 95.558048,527.26408 c 1.391717,4.29287 1.709084,5.5542 2.140147,8.37521 0.20575,1.34643 0.22442,2.70364 0.20852,4.05197 -0.0149,1.26122 -0.11638,2.51936 -0.28415,3.76645 -0.15089,1.12147 -0.374093,2.23395 -0.648634,3.33376 -0.246973,0.98936 -0.550321,1.96731 -0.896889,2.93151 -0.330725,0.92012 -0.70876,1.82718 -1.126829,2.71869 -0.402956,0.85928 -0.822933,1.71525 -1.329811,2.53135 -0.689119,1.10952 -2.318623,3.2025 -2.318623,3.2025"
       style="fill:none;stroke:#000000;stroke-width:1px;stroke-linecap:butt;stroke-linejoin:miter;stroke-opacity:1" />
    <path
       style="fill:none;stroke:#000000;stroke-width:1px;stroke-linecap:butt;stroke-linejoin:miter;stroke-opacity:1"
       d="m 99.056415,530.0457 c 0.996895,3.72077 1.219915,4.81541 1.506005,7.26783 0.13652,1.17053 0.13012,2.35328 0.0975,3.52882 -0.0307,1.09958 -0.12706,2.19783 -0.27428,3.28741 -0.13269,0.97979 -0.31957,1.95296 -0.545785,2.91581 -0.20355,0.86617 -0.44997,1.72321 -0.72914,2.56896 -0.26638,0.80708 -0.56876,1.60348 -0.90143,2.38695 -0.32062,0.75513 -0.65418,1.50765 -1.05348,2.22672 -0.54285,0.97763 -1.818404,2.82682 -1.818404,2.82682"
       id="path6491"
       inkscape:connector-curvature="0"
       sodipodi:nodetypes="csssssssc" />
    <path
       inkscape:connector-curvature="0"
       style="opacity:1;fill:#467abf;fill-opacity:1;stroke:#000000;stroke-width:0.99999994;stroke-linejoin:bevel;stroke-miterlimit:4;stroke-dasharray:none;stroke-opacity:1"
       d="m 29.088982,606.58725 a 39.5,39.5 0 0 1 14.96846,-53.81863 39.5,39.5 0 0 1 53.818633,14.96846 39.5,39.5 0 0 1 -14.968461,53.81863 39.5,39.5 0 0 1 -53.818632,-14.96846 z"
       id="path6495" />
    <path
       style="fill:none;stroke:#000000;stroke-width:1px;stroke-linecap:butt;stroke-linejoin:miter;stroke-opacity:1"
       d="m 39.97661,621.71408 c -4.7592,-2.70682 -6.051562,-3.57856 -8.619297,-5.76098 -1.22556,-1.04166 -2.242452,-2.2492 -3.212816,-3.47762 -0.907674,-1.14906 -1.712792,-2.36766 -2.433103,-3.63165 -0.64763,-1.13672 -1.205139,-2.32563 -1.693848,-3.54601 -0.439635,-1.09785 -0.805608,-2.23246 -1.111481,-3.39078 -0.291889,-1.10537 -0.519436,-2.23847 -0.689226,-3.39098 -0.163649,-1.11083 -0.305181,-2.23292 -0.316865,-3.39162 -0.01589,-1.5753 0.335656,-4.82207 0.335656,-4.82207"
       id="path6497"
       inkscape:connector-curvature="0"
       sodipodi:nodetypes="csssssssc" />
    <path
       sodipodi:nodetypes="csssssssc"
       inkscape:connector-curvature="0"
       id="path6499"
       d="m 35.096479,621.62108 c -3.708377,-2.57168 -4.725145,-3.38277 -6.777444,-5.36569 -0.979539,-0.94642 -1.816793,-2.01477 -2.621163,-3.097 -0.7524,-1.01232 -1.434026,-2.07468 -2.056235,-3.16841 -0.559525,-0.98356 -1.056072,-2.0038 -1.504097,-3.04505 -0.403039,-0.9367 -0.754308,-1.89847 -1.062867,-2.87549 -0.294458,-0.93237 -0.543363,-1.88301 -0.750995,-2.84554 -0.200124,-0.92772 -0.384708,-1.86314 -0.475998,-2.81949 -0.124117,-1.3002 -0.09608,-3.95257 -0.09608,-3.95257"
       style="fill:none;stroke:#000000;stroke-width:1px;stroke-linecap:butt;stroke-linejoin:miter;stroke-opacity:1" />
    <path
       style="fill:none;stroke:#000000;stroke-width:1px;stroke-linecap:butt;stroke-linejoin:miter;stroke-opacity:1"
       d="m 30.628,621.52813 c -3.047628,-2.35583 -3.888341,-3.09147 -5.601966,-4.86903 -0.817883,-0.84843 -1.529476,-1.7932 -2.215832,-2.74811 -0.641867,-0.89333 -1.230705,-1.82537 -1.773817,-2.78135 -0.488147,-0.85983 -0.929175,-1.74723 -1.33266,-2.65025 -0.362936,-0.81238 -0.686229,-1.64349 -0.976633,-2.48544 -0.277139,-0.80344 -0.519172,-1.62022 -0.729277,-2.44505 -0.20252,-0.79499 -0.393151,-1.59574 -0.511232,-2.40972 -0.160555,-1.10665 -0.266363,-3.35061 -0.266363,-3.35061"
       id="path6501"
       inkscape:connector-curvature="0"
       sodipodi:nodetypes="csssssssc" />
    <path
       inkscape:connector-curvature="0"
       style="opacity:1;fill:#467abf;fill-opacity:1;stroke:#000000;stroke-width:0.99999994;stroke-linejoin:bevel;stroke-miterlimit:4;stroke-dasharray:none;stroke-opacity:1"
       d="m 198.23678,344.86156 a 39.5,39.5 0 0 1 -26.38354,49.23829 39.5,39.5 0 0 1 -49.23829,-26.38354 39.5,39.5 0 0 1 26.38354,-49.23828 39.5,39.5 0 0 1 49.23829,26.38353 z"
       id="path6525" />
    <path
       style="fill:none;stroke:#000000;stroke-width:1px;stroke-linecap:butt;stroke-linejoin:miter;stroke-opacity:1"
       d="m 190.92349,327.71871 c 4.05147,3.68273 5.12173,4.81617 7.14961,7.50763 0.96789,1.28461 1.69587,2.68543 2.37388,4.09642 0.6342,1.31985 1.15312,2.6851 1.57935,4.0761 0.38317,1.25089 0.66698,2.53298 0.87677,3.83074 0.18872,1.16744 0.29751,2.35464 0.34248,3.55183 0.0429,1.14245 0.017,2.29788 -0.0696,3.45961 -0.0834,1.11972 -0.19088,2.24558 -0.43305,3.37875 -0.32924,1.54059 -1.38281,4.63173 -1.38281,4.63173"
       id="path6527"
       inkscape:connector-curvature="0"
       sodipodi:nodetypes="csssssssc" />
    <path
       sodipodi:nodetypes="csssssssc"
       inkscape:connector-curvature="0"
       id="path6529"
       d="m 195.66498,328.87745 c 3.05568,3.32091 3.8703,4.33484 5.4389,6.71883 0.74868,1.13784 1.33183,2.36353 1.87987,3.59556 0.51262,1.15243 0.94523,2.33822 1.313,3.5416 0.33071,1.08217 0.59195,2.18634 0.80124,3.3004 0.18828,1.0022 0.32056,2.01753 0.40782,3.03839 0.0833,0.97421 0.1181,1.95628 0.11006,2.94091 -0.008,0.94904 -0.0324,1.90217 -0.15257,2.85532 -0.16343,1.29584 -0.77125,3.87778 -0.77125,3.87778"
       style="fill:none;stroke:#000000;stroke-width:1px;stroke-linecap:butt;stroke-linejoin:miter;stroke-opacity:1" />
    <path
       style="fill:none;stroke:#000000;stroke-width:1px;stroke-linecap:butt;stroke-linejoin:miter;stroke-opacity:1"
       d="m 200.0048,329.94605 c 2.45819,2.96568 3.11753,3.86748 4.40061,5.97697 0.61238,1.00685 1.09997,2.08444 1.56071,3.16641 0.43081,1.01214 0.8014,2.05046 1.12214,3.10212 0.28814,0.94582 0.52427,1.90823 0.72036,2.87765 0.17635,0.87212 0.30993,1.75383 0.40903,2.63892 0.0946,0.84463 0.15201,1.69457 0.17652,2.54538 0.0236,0.82004 0.0344,1.6431 -0.0285,2.46319 -0.0855,1.11496 -0.47335,3.32768 -0.47335,3.32768"
       id="path6531"
       inkscape:connector-curvature="0"
       sodipodi:nodetypes="csssssssc" />
    <path
       inkscape:connector-curvature="0"
       style="opacity:1;fill:#467abf;fill-opacity:1;stroke:#000000;stroke-width:0.99999994;stroke-linejoin:bevel;stroke-miterlimit:4;stroke-dasharray:none;stroke-opacity:1"
       d="m 154.93886,482.91013 a 39.5,39.5 0 0 1 -19.11839,-52.48797 39.5,39.5 0 0 1 52.48797,-19.1184 39.5,39.5 0 0 1 19.11839,52.48797 39.5,39.5 0 0 1 -52.48797,19.1184 z"
       id="path6535" />
    <path
       style="fill:none;stroke:#000000;stroke-width:1px;stroke-linecap:butt;stroke-linejoin:miter;stroke-opacity:1"
       d="m 172.59275,488.88522 c -5.44584,0.56539 -7.00416,0.6077 -10.36221,0.32537 -1.60277,-0.13476 -3.13225,-0.52582 -4.63601,-0.96092 -1.40662,-0.40698 -2.77024,-0.93019 -4.09126,-1.53963 -1.18788,-0.54817 -2.3328,-1.1912 -3.44004,-1.89985 -0.99607,-0.63749 -1.95359,-1.34773 -2.876,-2.11221 -0.88024,-0.72953 -1.72427,-1.51903 -2.53259,-2.35791 -0.77909,-0.80855 -1.54674,-1.63911 -2.23003,-2.57497 -0.92897,-1.27233 -2.531,-4.11814 -2.531,-4.11814"
       id="path6537"
       inkscape:connector-curvature="0"
       sodipodi:nodetypes="csssssssc" />
    <path
       sodipodi:nodetypes="csssssssc"
       inkscape:connector-curvature="0"
       id="path6539"
       d="m 168.56848,491.64738 c -4.51237,0.0643 -5.81121,-0.004 -8.63392,-0.42408 -1.34724,-0.20035 -2.64964,-0.58263 -3.93335,-0.99532 -1.20078,-0.38604 -2.37308,-0.85395 -3.51528,-1.38192 -1.02715,-0.47481 -2.02438,-1.01606 -2.99436,-1.60264 -0.87259,-0.52767 -1.71764,-1.10585 -2.53681,-1.72127 -0.78173,-0.58729 -1.53703,-1.21594 -2.26566,-1.87825 -0.70229,-0.63837 -1.3964,-1.29204 -2.0268,-2.01698 -0.85704,-0.98559 -2.3766,-3.15971 -2.3766,-3.15971"
       style="fill:none;stroke:#000000;stroke-width:1px;stroke-linecap:butt;stroke-linejoin:miter;stroke-opacity:1" />
    <path
       style="fill:none;stroke:#000000;stroke-width:1px;stroke-linecap:butt;stroke-linejoin:miter;stroke-opacity:1"
       d="m 164.87913,494.17021 c -3.8493,-0.14435 -4.96104,-0.25395 -7.3888,-0.70358 -1.15875,-0.21463 -2.28705,-0.56944 -3.40072,-0.94719 -1.04166,-0.3535 -2.06269,-0.76935 -3.06044,-1.23125 -0.89713,-0.41565 -1.77195,-0.88113 -2.62532,-1.38114 -0.76766,-0.44986 -1.51397,-0.938 -2.23983,-1.45409 -0.69267,-0.49248 -1.36453,-1.01622 -2.0151,-1.56507 -0.62705,-0.52899 -1.24778,-1.06959 -1.81718,-1.66313 -0.77414,-0.80694 -2.1651,-2.57097 -2.1651,-2.57097"
       id="path6541"
       inkscape:connector-curvature="0"
       sodipodi:nodetypes="csssssssc" />
    <path
       inkscape:connector-curvature="0"
       style="opacity:1;fill:#467abf;fill-opacity:1;stroke:#000000;stroke-width:0.99999994;stroke-linejoin:bevel;stroke-miterlimit:4;stroke-dasharray:none;stroke-opacity:1"
       d="m 156.63991,546.76115 a 39.5,39.5 0 0 1 -53.26748,-16.82484 39.5,39.5 0 0 1 16.82483,-53.26748 39.5,39.5 0 0 1 53.26749,16.82483 39.5,39.5 0 0 1 -16.82484,53.26749 z"
       id="path6545" />
    <path
       style="fill:none;stroke:#000000;stroke-width:1px;stroke-linecap:butt;stroke-linejoin:miter;stroke-opacity:1"
       d="m 172.13502,536.40436 c -2.87015,4.66252 -3.78616,5.92389 -6.05627,8.41444 -1.08351,1.18872 -2.32557,2.16315 -3.58688,3.09035 -1.17983,0.86731 -2.4256,1.6297 -3.71381,2.30577 -1.15847,0.60784 -2.36599,1.12381 -3.60258,1.56992 -1.11243,0.40132 -2.25904,0.72775 -3.42727,0.99329 -1.11482,0.2534 -2.25513,0.44154 -3.41283,0.57128 -1.11584,0.12505 -2.24216,0.22761 -3.40057,0.19912 -1.5749,-0.0387 -4.80754,-0.50259 -4.80754,-0.50259"
       id="path6547"
       inkscape:connector-curvature="0"
       sodipodi:nodetypes="csssssssc" />
    <path
       sodipodi:nodetypes="csssssssc"
       inkscape:connector-curvature="0"
       id="path6549"
       d="m 171.87293,541.27834 c -2.69867,3.61701 -3.54451,4.60505 -5.59737,6.58739 -0.9798,0.94615 -2.07653,1.74587 -3.18599,2.51225 -1.03779,0.71686 -2.12314,1.36125 -3.23778,1.94518 -1.00236,0.5251 -2.03919,0.98598 -3.09535,1.39765 -0.95011,0.37033 -1.92347,0.68805 -2.91061,0.96256 -0.94201,0.26197 -1.90071,0.47777 -2.86985,0.65192 -0.93411,0.16785 -1.87536,0.3199 -2.8343,0.37799 -1.30372,0.079 -3.95352,-0.041 -3.95352,-0.041"
       style="fill:none;stroke:#000000;stroke-width:1px;stroke-linecap:butt;stroke-linejoin:miter;stroke-opacity:1" />
    <path
       style="fill:none;stroke:#000000;stroke-width:1px;stroke-linecap:butt;stroke-linejoin:miter;stroke-opacity:1"
       d="m 171.62515,545.74091 c -2.46004,2.96414 -3.22438,3.77885 -5.06027,5.42984 -0.87626,0.78798 -1.84512,1.4664 -2.82326,2.11925 -0.91503,0.61052 -1.86693,1.1667 -2.84115,1.67635 -0.87623,0.45805 -1.77839,0.86805 -2.69485,1.24 -0.82447,0.33456 -1.66628,0.62885 -2.5178,0.8899 -0.81257,0.24912 -1.63724,0.4627 -2.46885,0.64409 -0.80153,0.17484 -1.60841,0.33761 -2.426,0.4274 -1.11154,0.12211 -3.35782,0.15007 -3.35782,0.15007"
       id="path6551"
       inkscape:connector-curvature="0"
       sodipodi:nodetypes="csssssssc" />
    <path
       inkscape:connector-curvature="0"
       style="opacity:1;fill:#467abf;fill-opacity:1;stroke:#000000;stroke-width:0.99999994;stroke-linejoin:bevel;stroke-miterlimit:4;stroke-dasharray:none;stroke-opacity:1"
       d="m 126.29178,602.67711 a 39.5,39.5 0 0 1 49.49634,-25.89619 39.5,39.5 0 0 1 25.89619,49.49634 39.5,39.5 0 0 1 -49.49633,25.89619 39.5,39.5 0 0 1 -25.8962,-49.49634 z"
       id="path6555" />
    <path
       style="fill:none;stroke:#000000;stroke-width:1px;stroke-linecap:butt;stroke-linejoin:miter;stroke-opacity:1"
       d="m 122.70545,620.96645 c -1.28109,-5.32313 -1.52925,-6.86214 -1.69378,-10.22802 -0.0785,-1.60651 0.10669,-3.17429 0.33896,-4.72241 0.21727,-1.4481 0.55542,-2.86896 0.98469,-4.25902 0.38614,-1.24997 0.87201,-2.46992 1.4279,-3.6612 0.50007,-1.07167 1.07735,-2.11476 1.71304,-3.13022 0.60663,-0.96904 1.2775,-1.91012 2.00203,-2.82235 0.69834,-0.87924 1.42001,-1.75004 2.25721,-2.55117 1.13821,-1.08918 3.74699,-3.05371 3.74699,-3.05371"
       id="path6557"
       inkscape:connector-curvature="0"
       sodipodi:nodetypes="csssssssc" />
    <path
       sodipodi:nodetypes="csssssssc"
       inkscape:connector-curvature="0"
       id="path6559"
       d="m 119.43503,617.3431 c -0.66084,-4.46419 -0.76473,-5.76067 -0.7222,-8.61411 0.0203,-1.36191 0.22686,-2.70344 0.46605,-4.03047 0.22374,-1.2413 0.53239,-2.46522 0.90457,-3.66724 0.33471,-1.08095 0.73923,-2.14104 1.19229,-3.18011 0.40756,-0.93474 0.86882,-1.84887 1.37043,-2.74228 0.47867,-0.85257 1.00184,-1.68442 1.56191,-2.49429 0.53982,-0.78059 1.09588,-1.5551 1.73102,-2.27589 0.86351,-0.97993 2.81742,-2.77384 2.81742,-2.77384"
       style="fill:none;stroke:#000000;stroke-width:1px;stroke-linecap:butt;stroke-linejoin:miter;stroke-opacity:1" />
    <path
       style="fill:none;stroke:#000000;stroke-width:1px;stroke-linecap:butt;stroke-linejoin:miter;stroke-opacity:1"
       d="m 116.44617,614.02005 c -0.36631,-3.83455 -0.4048,-4.95101 -0.2804,-7.41693 0.0594,-1.17696 0.26178,-2.34229 0.48883,-3.49615 0.21255,-1.07928 0.48962,-2.14637 0.81542,-3.19647 0.29327,-0.94424 0.63889,-1.87297 1.02158,-2.78499 0.34431,-0.82045 0.7294,-1.62479 1.14489,-2.41256 0.39649,-0.75175 0.82671,-1.48701 1.28464,-2.2045 0.44136,-0.69153 0.89506,-1.37834 1.40803,-2.02128 0.6974,-0.87412 2.26184,-2.48628 2.26184,-2.48628"
       id="path6561"
       inkscape:connector-curvature="0"
       sodipodi:nodetypes="csssssssc" />
    <path
       inkscape:connector-curvature="0"
       style="opacity:1;fill:#467abf;fill-opacity:1;stroke:#000000;stroke-width:0.99999994;stroke-linejoin:bevel;stroke-miterlimit:4;stroke-dasharray:none;stroke-opacity:1"
       d="m 236.5244,330.08633 a 39.5,39.5 0 0 1 36.28008,42.47653 39.5,39.5 0 0 1 -42.47654,36.28008 39.5,39.5 0 0 1 -36.28008,-42.47654 39.5,39.5 0 0 1 42.47654,-36.28007 z"
       id="path6585" />
    <path
       style="fill:none;stroke:#000000;stroke-width:1px;stroke-linecap:butt;stroke-linejoin:miter;stroke-opacity:1"
       d="m 217.89584,330.66808 c 4.9035,-2.43569 6.34844,-3.02074 9.59291,-3.93159 1.54856,-0.43474 3.11817,-0.60374 4.6791,-0.72249 1.46009,-0.11107 2.92059,-0.0982 4.37136,0.0103 1.30461,0.0977 2.60217,0.29936 3.88741,0.57565 1.15618,0.24854 2.30173,0.57872 3.43336,0.972 1.07991,0.37529 2.14687,0.81945 3.19768,1.32235 1.01281,0.48473 2.0226,0.99408 2.99022,1.63158 1.31554,0.86671 3.81227,2.97181 3.81227,2.97181"
       id="path6587"
       inkscape:connector-curvature="0"
       sodipodi:nodetypes="csssssssc" />
    <path
       sodipodi:nodetypes="csssssssc"
       inkscape:connector-curvature="0"
       id="path6589"
       d="m 220.69881,326.67212 c 4.20446,-1.63955 5.44515,-2.02989 8.23624,-2.62463 1.33215,-0.28387 2.68597,-0.38161 4.03292,-0.44432 1.25995,-0.0587 2.52187,-0.0307 3.77662,0.0642 1.12836,0.0853 2.25196,0.24325 3.36589,0.45323 1.00208,0.18889 1.99604,0.43472 2.9788,0.72451 0.93784,0.27653 1.86539,0.60106 2.77975,0.96646 0.8813,0.35219 1.76029,0.72157 2.60454,1.18002 1.1478,0.62328 3.3322,2.12803 3.3322,2.12803"
       style="fill:none;stroke:#000000;stroke-width:1px;stroke-linecap:butt;stroke-linejoin:miter;stroke-opacity:1" />
    <path
       style="fill:none;stroke:#000000;stroke-width:1px;stroke-linecap:butt;stroke-linejoin:miter;stroke-opacity:1"
       d="m 223.2718,323.01758 c 3.65636,-1.21204 4.73613,-1.49849 7.16771,-1.92702 1.16058,-0.20451 2.3417,-0.26705 3.51714,-0.30299 1.0995,-0.0334 2.2015,-0.001 3.29781,0.0822 0.98585,0.0753 1.96827,0.2052 2.94266,0.37491 0.87656,0.15271 1.74651,0.34877 2.60709,0.57817 0.82123,0.21889 1.63391,0.47434 2.43543,0.76078 0.77254,0.27606 1.54321,0.56521 2.28434,0.92191 1.0076,0.48495 2.92799,1.65056 2.92799,1.65056"
       id="path6591"
       inkscape:connector-curvature="0"
       sodipodi:nodetypes="csssssssc" />
    <path
       inkscape:connector-curvature="0"
       style="opacity:1;fill:#467abf;fill-opacity:1;stroke:#000000;stroke-width:0.99999994;stroke-linejoin:bevel;stroke-miterlimit:4;stroke-dasharray:none;stroke-opacity:1"
       d="m 236.99583,478.44489 a 39.5,39.5 0 0 1 -11.49949,-54.665 39.5,39.5 0 0 1 54.665,-11.49948 39.5,39.5 0 0 1 11.49948,54.66499 39.5,39.5 0 0 1 -54.66499,11.49949 z"
       id="path6595" />
    <path
       style="fill:none;stroke:#000000;stroke-width:1px;stroke-linecap:butt;stroke-linejoin:miter;stroke-opacity:1"
       d="m 253.62669,486.85773 c -5.47105,-0.21083 -7.01968,-0.38943 -10.304,-1.14406 -1.56758,-0.36018 -3.02634,-0.96372 -4.45342,-1.6072 -1.33487,-0.60192 -2.61075,-1.3128 -3.83225,-2.10303 -1.09837,-0.71072 -2.14079,-1.50928 -3.13662,-2.36746 -0.89585,-0.77202 -1.74324,-1.61059 -2.54821,-2.49789 -0.76816,-0.84673 -1.49199,-1.74772 -2.17348,-2.69253 -0.65686,-0.91065 -1.29926,-1.84147 -1.84327,-2.86459 -0.7396,-1.39097 -1.92285,-4.43483 -1.92285,-4.43483"
       id="path6597"
       inkscape:connector-curvature="0"
       sodipodi:nodetypes="csssssssc" />
    <path
       sodipodi:nodetypes="csssssssc"
       inkscape:connector-curvature="0"
       id="path6599"
       d="m 249.25208,489.02271 c -4.47607,-0.57484 -5.75213,-0.82651 -8.48705,-1.64144 -1.30535,-0.38895 -2.54055,-0.95167 -3.75295,-1.54184 -1.13408,-0.55206 -2.22838,-1.18112 -3.28439,-1.8654 -0.94963,-0.61536 -1.86025,-1.29227 -2.73748,-2.01019 -0.78915,-0.64582 -1.54389,-1.33775 -2.26774,-2.06289 -0.69077,-0.69199 -1.34952,-1.42118 -1.97711,-2.17992 -0.6049,-0.73132 -1.19955,-1.47662 -1.72102,-2.28346 -0.70898,-1.09695 -1.90563,-3.46419 -1.90563,-3.46419"
       style="fill:none;stroke:#000000;stroke-width:1px;stroke-linecap:butt;stroke-linejoin:miter;stroke-opacity:1" />
    <path
       style="fill:none;stroke:#000000;stroke-width:1px;stroke-linecap:butt;stroke-linejoin:miter;stroke-opacity:1"
       d="m 245.24289,490.99815 c -3.79015,-0.68754 -4.8752,-0.95334 -7.21492,-1.74196 -1.11672,-0.37642 -2.18347,-0.8873 -3.23249,-1.41882 -0.98116,-0.49734 -1.93308,-1.05347 -2.85544,-1.6519 -0.82929,-0.5384 -1.62945,-1.12297 -2.40348,-1.7387 -0.69629,-0.55395 -1.36602,-1.14277 -2.01156,-1.75638 -0.61602,-0.58553 -1.20702,-1.19906 -1.77339,-1.83444 -0.54589,-0.61239 -1.08389,-1.23537 -1.56358,-1.90351 -0.65217,-0.90836 -1.77954,-2.85144 -1.77954,-2.85144"
       id="path6601"
       inkscape:connector-curvature="0"
       sodipodi:nodetypes="csssssssc" />
    <path
       inkscape:connector-curvature="0"
       style="opacity:1;fill:#467abf;fill-opacity:1;stroke:#000000;stroke-width:0.99999994;stroke-linejoin:bevel;stroke-miterlimit:4;stroke-dasharray:none;stroke-opacity:1"
       d="m 197.82459,526.73358 a 39.5,39.5 0 0 1 28.20244,-48.21952 39.5,39.5 0 0 1 48.21952,28.20244 39.5,39.5 0 0 1 -28.20244,48.21952 39.5,39.5 0 0 1 -48.21952,-28.20244 z"
       id="path6605" />
    <path
       style="fill:none;stroke:#000000;stroke-width:1px;stroke-linecap:butt;stroke-linejoin:miter;stroke-opacity:1"
       d="m 204.49311,544.13738 c -3.91122,-3.83134 -4.93844,-5.00393 -6.86448,-7.76918 -0.91929,-1.31983 -1.59449,-2.74684 -2.21938,-4.18215 -0.58451,-1.34259 -1.05213,-2.72626 -1.42616,-4.13219 -0.33622,-1.26431 -0.57199,-2.55611 -0.73321,-3.86078 -0.14503,-1.17368 -0.20945,-2.36411 -0.20971,-3.56214 -2.5e-4,-1.14326 0.0688,-2.29692 0.19862,-3.4546 0.12514,-1.11583 0.27454,-2.2369 0.55883,-3.36025 0.38649,-1.52722 1.55466,-4.5769 1.55466,-4.5769"
       id="path6607"
       inkscape:connector-curvature="0"
       sodipodi:nodetypes="csssssssc" />
    <path
       sodipodi:nodetypes="csssssssc"
       inkscape:connector-curvature="0"
       id="path6609"
       d="m 199.79817,542.80253 c -2.92964,-3.43262 -3.70586,-4.47625 -5.18442,-6.9171 -0.70569,-1.16499 -1.24271,-2.41158 -1.74438,-3.6632 -0.46927,-1.17076 -0.85733,-2.37186 -1.17994,-3.58813 -0.2901,-1.09376 -0.50996,-2.2069 -0.67754,-3.328 -0.15075,-1.00852 -0.24505,-2.02808 -0.29415,-3.0515 -0.0469,-0.97663 -0.045,-1.95932 -2.5e-4,-2.94296 0.0432,-0.94809 0.10331,-1.89964 0.25901,-2.84764 0.21167,-1.28884 0.9154,-3.8463 0.9154,-3.8463"
       style="fill:none;stroke:#000000;stroke-width:1px;stroke-linecap:butt;stroke-linejoin:miter;stroke-opacity:1" />
    <path
       style="fill:none;stroke:#000000;stroke-width:1px;stroke-linecap:butt;stroke-linejoin:miter;stroke-opacity:1"
       d="m 195.50124,541.57273 c -2.34582,-3.05534 -2.97105,-3.98111 -4.17452,-6.13701 -0.57439,-1.029 -1.02143,-2.12403 -1.44147,-3.22244 -0.39274,-1.02751 -0.72433,-2.07894 -1.0056,-3.14183 -0.25266,-0.95591 -0.45272,-1.92646 -0.61249,-2.90253 -0.14369,-0.87809 -0.24427,-1.76417 -0.31028,-2.65235 -0.063,-0.84756 -0.0887,-1.69905 -0.0814,-2.55019 0.007,-0.82035 0.0269,-1.64324 0.1204,-2.46041 0.12707,-1.11099 0.5972,-3.3077 0.5972,-3.3077"
       id="path6611"
       inkscape:connector-curvature="0"
       sodipodi:nodetypes="csssssssc" />
    <path
       inkscape:connector-curvature="0"
       style="opacity:1;fill:#467abf;fill-opacity:1;stroke:#000000;stroke-width:0.99999994;stroke-linejoin:bevel;stroke-miterlimit:4;stroke-dasharray:none;stroke-opacity:1"
       d="m 209.47412,595.8525 a 39.5,39.5 0 0 1 46.69333,-30.66321 39.5,39.5 0 0 1 30.66321,46.69333 39.5,39.5 0 0 1 -46.69333,30.66322 39.5,39.5 0 0 1 -30.66321,-46.69334 z"
       id="path6615" />
    <path
       style="fill:none;stroke:#000000;stroke-width:1px;stroke-linecap:butt;stroke-linejoin:miter;stroke-opacity:1"
       d="m 207.71371,614.40681 c -1.80114,-5.17037 -2.20025,-6.67731 -2.69677,-10.01043 -0.23699,-1.59087 -0.20769,-3.16928 -0.12963,-4.73278 0.073,-1.46248 0.26903,-2.90982 0.55875,-4.33551 0.26067,-1.28203 0.62353,-2.54403 1.05891,-3.78444 0.39166,-1.11586 0.86298,-2.21092 1.39515,-3.28426 0.50784,-1.02427 1.08237,-2.02708 1.71316,-3.00647 0.60798,-0.94398 1.24002,-1.88187 1.9939,-2.76185 1.02494,-1.19638 3.4267,-3.40922 3.4267,-3.40922"
       id="path6617"
       inkscape:connector-curvature="0"
       sodipodi:nodetypes="csssssssc" />
    <path
       sodipodi:nodetypes="csssssssc"
       inkscape:connector-curvature="0"
       id="path6619"
       d="m 204.10105,611.12458 c -1.099,-4.37697 -1.33057,-5.65683 -1.57038,-8.50049 -0.11446,-1.35724 -0.0415,-2.71262 0.0653,-4.0568 0.0999,-1.25735 0.28604,-2.50578 0.53755,-3.73872 0.22618,-1.10874 0.52391,-2.20363 0.87201,-3.28241 0.31314,-0.97046 0.68176,-1.92571 1.09257,-2.86434 0.39203,-0.89572 0.83039,-1.77522 1.30764,-2.6365 0.45999,-0.83014 0.93675,-1.65584 1.49751,-2.43589 0.76239,-1.06051 2.52935,-3.03882 2.52935,-3.03882"
       style="fill:none;stroke:#000000;stroke-width:1px;stroke-linecap:butt;stroke-linejoin:miter;stroke-opacity:1" />
    <path
       style="fill:none;stroke:#000000;stroke-width:1px;stroke-linecap:butt;stroke-linejoin:miter;stroke-opacity:1"
       d="m 200.79827,608.11334 c -0.74366,-3.77955 -0.89235,-4.88673 -1.01236,-7.35287 -0.0573,-1.17706 0.0289,-2.35669 0.14074,-3.52735 0.1048,-1.095 0.27501,-2.18426 0.49539,-3.26143 0.19847,-0.96861 0.45057,-1.92696 0.7412,-2.87235 0.2615,-0.85047 0.56518,-1.68895 0.90075,-2.51394 0.32021,-0.78727 0.67562,-1.56147 1.06037,-2.32071 0.37082,-0.73179 0.75439,-1.46009 1.20128,-2.1506 0.60755,-0.93879 2.00492,-2.69773 2.00492,-2.69773"
       id="path6621"
       inkscape:connector-curvature="0"
       sodipodi:nodetypes="csssssssc" />
    <path
       inkscape:connector-curvature="0"
       style="opacity:1;fill:#467abf;fill-opacity:1;stroke:#000000;stroke-width:0.99999994;stroke-linejoin:bevel;stroke-miterlimit:4;stroke-dasharray:none;stroke-opacity:1"
       d="m 290.87812,357.48161 a 39.5,39.5 0 0 1 43.45712,-35.09956 39.5,39.5 0 0 1 35.09956,43.45711 39.5,39.5 0 0 1 -43.45712,35.09956 39.5,39.5 0 0 1 -35.09956,-43.45711 z"
       id="path6645" />
    <path
       style="fill:none;stroke:#000000;stroke-width:1px;stroke-linecap:butt;stroke-linejoin:miter;stroke-opacity:1"
       d="m 290.94793,376.11911 c -2.30007,-4.96855 -2.84521,-6.42902 -3.66659,-9.69728 -0.39204,-1.55992 -0.51785,-3.13358 -0.59368,-4.69719 -0.0709,-1.46259 -0.018,-2.92218 0.13038,-4.36943 0.13353,-1.30142 0.37073,-2.59296 0.68222,-3.87012 0.28021,-1.14893 0.64174,-2.28496 1.06595,-3.40537 0.40482,-1.06919 0.87812,-2.12355 1.4097,-3.16014 0.51236,-0.99912 1.04926,-1.99453 1.7131,-2.94428 0.90252,-1.29123 3.07541,-3.7292 3.07541,-3.7292"
       id="path6647"
       inkscape:connector-curvature="0"
       sodipodi:nodetypes="csssssssc" />
    <path
       sodipodi:nodetypes="csssssssc"
       inkscape:connector-curvature="0"
       id="path6649"
       d="m 287.03048,373.20744 c -1.52344,-4.24792 -1.87955,-5.49886 -2.3974,-8.30524 -0.24716,-1.33944 -0.30768,-2.69543 -0.33337,-4.04361 -0.024,-1.26107 0.0386,-2.52175 0.16787,-3.77342 0.11623,-1.12559 0.30503,-2.24443 0.54552,-3.35217 0.21635,-0.99652 0.4894,-1.98335 0.80607,-2.95777 0.30219,-0.92989 0.65208,-1.84818 1.04245,-2.75216 0.37627,-0.87129 0.76965,-1.73981 1.25112,-2.57115 0.65458,-1.13024 2.21877,-3.27247 2.21877,-3.27247"
       style="fill:none;stroke:#000000;stroke-width:1px;stroke-linecap:butt;stroke-linejoin:miter;stroke-opacity:1" />
    <path
       style="fill:none;stroke:#000000;stroke-width:1px;stroke-linecap:butt;stroke-linejoin:miter;stroke-opacity:1"
       d="m 283.448,370.53502 c -1.11115,-3.68827 -1.36783,-4.7755 -1.7294,-7.21794 -0.17256,-1.16576 -0.20263,-2.34814 -0.20626,-3.52413 -0.003,-1.1 0.0592,-2.2007 0.17277,-3.29431 0.10241,-0.98341 0.2592,-1.96188 0.45561,-2.93125 0.17673,-0.87203 0.39662,-1.73627 0.64957,-2.59022 0.24136,-0.81491 0.51905,-1.62026 0.82739,-2.41361 0.29718,-0.76467 0.60739,-1.52711 0.98432,-2.25815 0.51244,-0.99391 1.73037,-2.88156 1.73037,-2.88156"
       id="path6651"
       inkscape:connector-curvature="0"
       sodipodi:nodetypes="csssssssc" />
    <path
       inkscape:connector-curvature="0"
       style="opacity:1;fill:#467abf;fill-opacity:1;stroke:#000000;stroke-width:0.99999994;stroke-linejoin:bevel;stroke-miterlimit:4;stroke-dasharray:none;stroke-opacity:1"
       d="m 360.93044,411.74957 a 39.5,39.5 0 0 1 11.89414,54.58049 39.5,39.5 0 0 1 -54.58048,11.89414 39.5,39.5 0 0 1 -11.89414,-54.58048 39.5,39.5 0 0 1 54.58048,-11.89415 z"
       id="path6655" />
    <path
       style="fill:none;stroke:#000000;stroke-width:1px;stroke-linecap:butt;stroke-linejoin:miter;stroke-opacity:1"
       d="m 344.23923,403.45711 c 5.47243,0.1713 7.02231,0.3387 10.312,1.06959 1.57014,0.34884 3.03322,0.94182 4.46491,1.57498 1.33919,0.59225 2.62017,1.2939 3.84735,2.07528 1.10347,0.70277 2.15163,1.49378 3.15364,2.34474 0.9014,0.76552 1.75483,1.59795 2.56619,2.47941 0.77426,0.84116 1.50458,1.7369 2.19288,2.67676 0.66342,0.90588 1.31253,1.83203 1.86391,2.8512 0.74964,1.38559 1.95484,4.42081 1.95484,4.42081"
       id="path6657"
       inkscape:connector-curvature="0"
       sodipodi:nodetypes="csssssssc" />
    <path
       sodipodi:nodetypes="csssssssc"
       inkscape:connector-curvature="0"
       id="path6659"
       d="m 348.59808,401.26058 c 4.48011,0.54248 5.75796,0.78493 8.49869,1.58008 1.30812,0.37951 2.54736,0.93328 3.764,1.51468 1.13803,0.54385 2.23685,1.165 3.29778,1.84162 0.95405,0.60848 1.86953,1.2788 2.75193,1.99036 0.79379,0.64011 1.55351,1.32656 2.28258,2.04645 0.69575,0.68698 1.35976,1.41139 1.99281,2.16559 0.61017,0.72692 1.21018,1.46791 1.73748,2.27096 0.71688,1.09179 1.9306,3.45033 1.9306,3.45033"
       style="fill:none;stroke:#000000;stroke-width:1px;stroke-linecap:butt;stroke-linejoin:miter;stroke-opacity:1" />
    <path
       style="fill:none;stroke:#000000;stroke-width:1px;stroke-linecap:butt;stroke-linejoin:miter;stroke-opacity:1"
       d="m 352.5929,399.25623 c 3.79502,0.66014 4.88195,0.91808 7.22731,1.68978 1.11942,0.36834 2.18982,0.87151 3.24265,1.39543 0.98473,0.49023 1.94065,1.03947 2.86731,1.63122 0.83316,0.5324 1.63752,1.11118 2.41598,1.72129 0.70028,0.54891 1.37424,1.13288 2.02419,1.7418 0.62024,0.58107 1.21566,1.19031 1.7866,1.82159 0.55031,0.60843 1.09279,1.2275 1.57729,1.89216 0.65873,0.90362 1.8001,2.83851 1.8001,2.83851"
       id="path6661"
       inkscape:connector-curvature="0"
       sodipodi:nodetypes="csssssssc" />
    <path
       inkscape:connector-curvature="0"
       style="opacity:1;fill:#467abf;fill-opacity:1;stroke:#000000;stroke-width:0.99999994;stroke-linejoin:bevel;stroke-miterlimit:4;stroke-dasharray:none;stroke-opacity:1"
       d="m 311.58175,520.9961 a 39.5,39.5 0 0 1 41.30096,-37.6129 39.5,39.5 0 0 1 37.6129,41.30096 39.5,39.5 0 0 1 -41.30096,37.6129 39.5,39.5 0 0 1 -37.6129,-41.30096 z"
       id="path6665" />
    <path
       style="fill:none;stroke:#000000;stroke-width:1px;stroke-linecap:butt;stroke-linejoin:miter;stroke-opacity:1"
       d="m 312.75579,539.59672 c -2.59044,-4.82354 -3.22117,-6.24913 -4.23476,-9.46299 -0.48378,-1.53395 -0.70262,-3.09739 -0.87096,-4.65375 -0.15747,-1.45582 -0.19109,-2.91598 -0.12876,-4.36948 0.0562,-1.30705 0.21644,-2.61037 0.4517,-3.90375 0.21164,-1.1635 0.50522,-2.31897 0.8623,-3.46255 0.34075,-1.09129 0.75074,-2.17185 1.21996,-3.23811 0.45226,-1.02772 0.92924,-2.0532 1.53564,-3.04062 0.82442,-1.34243 2.84904,-3.90487 2.84904,-3.90487"
       id="path6667"
       inkscape:connector-curvature="0"
       sodipodi:nodetypes="csssssssc" />
    <path
       sodipodi:nodetypes="csssssssc"
       inkscape:connector-curvature="0"
       id="path6669"
       d="m 308.67268,536.92228 c -1.77246,-4.15018 -2.20207,-5.37782 -2.8853,-8.14858 -0.3261,-1.32245 -0.46685,-2.67247 -0.57238,-4.01675 -0.0987,-1.25744 -0.11086,-2.51961 -0.056,-3.77674 0.0493,-1.1305 0.1715,-2.25856 0.34593,-3.37861 0.15692,-1.00758 0.37102,-2.00886 0.62939,-3.00034 0.24656,-0.94616 0.54142,-1.88356 0.87755,-2.80908 0.32398,-0.89206 0.66521,-1.78236 1.09657,-2.64077 0.58646,-1.16704 2.02096,-3.3982 2.02096,-3.3982"
       style="fill:none;stroke:#000000;stroke-width:1px;stroke-linecap:butt;stroke-linejoin:miter;stroke-opacity:1" />
    <path
       style="fill:none;stroke:#000000;stroke-width:1px;stroke-linecap:butt;stroke-linejoin:miter;stroke-opacity:1"
       d="m 304.93815,534.46684 c -1.32774,-3.61595 -1.64839,-4.68606 -2.15405,-7.10278 -0.24133,-1.15349 -0.34141,-2.33201 -0.41472,-3.50572 -0.0684,-1.09788 -0.0713,-2.20034 -0.0227,-3.29875 0.044,-0.98776 0.14249,-1.9738 0.28111,-2.9531 0.12476,-0.88098 0.29304,-1.75672 0.49495,-2.62416 0.19266,-0.82778 0.42213,-1.64817 0.68293,-2.4584 0.25135,-0.78093 0.51583,-1.56041 0.84878,-2.31251 0.45265,-1.02252 1.55658,-2.97902 1.55658,-2.97902"
       id="path6671"
       inkscape:connector-curvature="0"
       sodipodi:nodetypes="csssssssc" />
    <path
       inkscape:connector-curvature="0"
       style="opacity:1;fill:#467abf;fill-opacity:1;stroke:#000000;stroke-width:0.99999994;stroke-linejoin:bevel;stroke-miterlimit:4;stroke-dasharray:none;stroke-opacity:1"
       d="m 321.62922,629.78608 a 39.5,39.5 0 0 1 -12.69767,-54.39916 39.5,39.5 0 0 1 54.39917,-12.69768 39.5,39.5 0 0 1 12.69767,54.39917 39.5,39.5 0 0 1 -54.39917,12.69767 z"
       id="path6675" />
    <path
       style="fill:none;stroke:#000000;stroke-width:1px;stroke-linecap:butt;stroke-linejoin:miter;stroke-opacity:1"
       d="m 338.4409,637.83152 c -5.47436,-0.0906 -7.02654,-0.23512 -10.32665,-0.91741 -1.57511,-0.32566 -3.04678,-0.897 -4.48765,-1.50898 -1.34778,-0.57244 -2.63896,-1.25512 -3.87753,-2.01832 -1.11372,-0.68642 -2.17342,-1.46189 -3.18788,-2.29798 -0.91259,-0.75215 -1.7782,-1.57191 -2.60246,-2.44131 -0.78659,-0.82965 -1.53003,-1.71452 -2.23212,-2.64412 -0.6767,-0.896 -1.3394,-1.81249 -1.90575,-2.82341 -0.76998,-1.37438 -2.01982,-4.39151 -2.01982,-4.39151"
       id="path6677"
       inkscape:connector-curvature="0"
       sodipodi:nodetypes="csssssssc" />
    <path
       sodipodi:nodetypes="csssssssc"
       inkscape:connector-curvature="0"
       id="path6679"
       d="m 334.11491,640.09209 c -4.48762,-0.47637 -5.7689,-0.69995 -8.52106,-1.45459 -1.31358,-0.36018 -2.56085,-0.89562 -3.78592,-1.45902 -1.14594,-0.52701 -2.2538,-1.13188 -3.32458,-1.79279 -0.96292,-0.59435 -1.88819,-1.25109 -2.78098,-1.94956 -0.80315,-0.62834 -1.5729,-1.30351 -2.31251,-2.01257 -0.70581,-0.67665 -1.38042,-1.39119 -2.02453,-2.13597 -0.62082,-0.71785 -1.2317,-1.4499 -1.77077,-2.2451 -0.73291,-1.0811 -1.98128,-3.42149 -1.98128,-3.42149"
       style="fill:none;stroke:#000000;stroke-width:1px;stroke-linecap:butt;stroke-linejoin:miter;stroke-opacity:1" />
    <path
       style="fill:none;stroke:#000000;stroke-width:1px;stroke-linecap:butt;stroke-linejoin:miter;stroke-opacity:1"
       d="m 330.15009,642.15513 c -3.80435,-0.60411 -4.89497,-0.846 -7.25145,-1.58303 -1.12473,-0.3518 -2.20243,-0.83912 -3.26288,-1.34747 -0.99185,-0.47566 -1.95576,-1.01074 -2.89104,-1.58876 -0.84092,-0.52005 -1.65373,-1.08691 -2.4411,-1.68548 -0.7083,-0.53852 -1.3908,-1.11249 -2.04966,-1.71176 -0.62874,-0.57186 -1.23307,-1.17226 -1.81326,-1.79504 -0.55922,-0.60025 -1.11077,-1.21126 -1.60502,-1.8687 -0.67198,-0.89381 -1.84177,-2.81166 -1.84177,-2.81166"
       id="path6681"
       inkscape:connector-curvature="0"
       sodipodi:nodetypes="csssssssc" />
  </g>
</svg>
