<?xml version="1.0" encoding="UTF-8" standalone="no"?>
<!-- Created with Inkscape (http://www.inkscape.org/) -->

<svg
   xmlns:dc="http://purl.org/dc/elements/1.1/"
   xmlns:cc="http://creativecommons.org/ns#"
   xmlns:rdf="http://www.w3.org/1999/02/22-rdf-syntax-ns#"
   xmlns:svg="http://www.w3.org/2000/svg"
   xmlns="http://www.w3.org/2000/svg"
   xmlns:sodipodi="http://sodipodi.sourceforge.net/DTD/sodipodi-0.dtd"
   xmlns:inkscape="http://www.inkscape.org/namespaces/inkscape"
   width="500"
   height="500"
   viewBox="0 0 500 500"
   version="1.1"
   id="svg8"
   inkscape:version="0.92.2 5c3e80d, 2017-08-06"
   sodipodi:docname="hot gas.svg">
  <defs
     id="defs2">
    <marker
       inkscape:isstock="true"
       style="overflow:visible;"
       id="marker8132"
       refX="0.0"
       refY="0.0"
       orient="auto"
       inkscape:stockid="Arrow1Lend">
      <path
         transform="scale(0.8) rotate(180) translate(12.5,0)"
         style="fill-rule:evenodd;stroke:#000000;stroke-width:1pt;stroke-opacity:1;fill:#000000;fill-opacity:1"
         d="M 0.0,0.0 L 5.0,-5.0 L -12.5,0.0 L 5.0,5.0 L 0.0,0.0 z "
         id="path8130" />
    </marker>
    <marker
       inkscape:stockid="Arrow1Lend"
       orient="auto"
       refY="0.0"
       refX="0.0"
       id="marker1780"
       style="overflow:visible;"
       inkscape:isstock="true">
      <path
         id="path1778"
         d="M 0.0,0.0 L 5.0,-5.0 L -12.5,0.0 L 5.0,5.0 L 0.0,0.0 z "
         style="fill-rule:evenodd;stroke:#000000;stroke-width:1pt;stroke-opacity:1;fill:#000000;fill-opacity:1"
         transform="scale(0.8) rotate(180) translate(12.5,0)" />
    </marker>
    <marker
       inkscape:stockid="Arrow1Lend"
       orient="auto"
       refY="0.0"
       refX="0.0"
       id="marker1684"
       style="overflow:visible;"
       inkscape:isstock="true">
      <path
         id="path1682"
         d="M 0.0,0.0 L 5.0,-5.0 L -12.5,0.0 L 5.0,5.0 L 0.0,0.0 z "
         style="fill-rule:evenodd;stroke:#000000;stroke-width:1pt;stroke-opacity:1;fill:#000000;fill-opacity:1"
         transform="scale(0.8) rotate(180) translate(12.5,0)" />
    </marker>
    <marker
       inkscape:stockid="Arrow1Lend"
       orient="auto"
       refY="0.0"
       refX="0.0"
       id="marker1576"
       style="overflow:visible;"
       inkscape:isstock="true">
      <path
         id="path1574"
         d="M 0.0,0.0 L 5.0,-5.0 L -12.5,0.0 L 5.0,5.0 L 0.0,0.0 z "
         style="fill-rule:evenodd;stroke:#000000;stroke-width:1pt;stroke-opacity:1;fill:#000000;fill-opacity:1"
         transform="scale(0.8) rotate(180) translate(12.5,0)" />
    </marker>
    <marker
       inkscape:stockid="Arrow1Lend"
       orient="auto"
       refY="0.0"
       refX="0.0"
       id="marker1390"
       style="overflow:visible;"
       inkscape:isstock="true"
       inkscape:collect="always">
      <path
         id="path1388"
         d="M 0.0,0.0 L 5.0,-5.0 L -12.5,0.0 L 5.0,5.0 L 0.0,0.0 z "
         style="fill-rule:evenodd;stroke:#000000;stroke-width:1pt;stroke-opacity:1;fill:#000000;fill-opacity:1"
         transform="scale(0.8) rotate(180) translate(12.5,0)" />
    </marker>
    <marker
       inkscape:collect="always"
       inkscape:isstock="true"
       style="overflow:visible;"
       id="Arrow1Lend"
       refX="0.0"
       refY="0.0"
       orient="auto"
       inkscape:stockid="Arrow1Lend">
      <path
         transform="scale(0.8) rotate(180) translate(12.5,0)"
         style="fill-rule:evenodd;stroke:#000000;stroke-width:1pt;stroke-opacity:1;fill:#000000;fill-opacity:1"
         d="M 0.0,0.0 L 5.0,-5.0 L -12.5,0.0 L 5.0,5.0 L 0.0,0.0 z "
         id="path824" />
    </marker>
    <marker
       inkscape:stockid="Arrow1Lend"
       orient="auto"
       refY="0.0"
       refX="0.0"
       id="marker1780-8"
       style="overflow:visible;"
       inkscape:isstock="true">
      <path
         id="path1778-3"
         d="M 0.0,0.0 L 5.0,-5.0 L -12.5,0.0 L 5.0,5.0 L 0.0,0.0 z "
         style="fill-rule:evenodd;stroke:#000000;stroke-width:1pt;stroke-opacity:1;fill:#000000;fill-opacity:1"
         transform="scale(0.8) rotate(180) translate(12.5,0)" />
    </marker>
    <marker
       inkscape:stockid="Arrow1Lend"
       orient="auto"
       refY="0.0"
       refX="0.0"
       id="marker1684-9"
       style="overflow:visible;"
       inkscape:isstock="true">
      <path
         id="path1682-0"
         d="M 0.0,0.0 L 5.0,-5.0 L -12.5,0.0 L 5.0,5.0 L 0.0,0.0 z "
         style="fill-rule:evenodd;stroke:#000000;stroke-width:1pt;stroke-opacity:1;fill:#000000;fill-opacity:1"
         transform="scale(0.8) rotate(180) translate(12.5,0)" />
    </marker>
    <marker
       inkscape:stockid="Arrow1Lend"
       orient="auto"
       refY="0.0"
       refX="0.0"
       id="marker1576-5"
       style="overflow:visible;"
       inkscape:isstock="true">
      <path
         id="path1574-2"
         d="M 0.0,0.0 L 5.0,-5.0 L -12.5,0.0 L 5.0,5.0 L 0.0,0.0 z "
         style="fill-rule:evenodd;stroke:#000000;stroke-width:1pt;stroke-opacity:1;fill:#000000;fill-opacity:1"
         transform="scale(0.8) rotate(180) translate(12.5,0)" />
    </marker>
    <marker
       inkscape:stockid="Arrow1Lend"
       orient="auto"
       refY="0.0"
       refX="0.0"
       id="marker1390-2"
       style="overflow:visible;"
       inkscape:isstock="true">
      <path
         id="path1388-7"
         d="M 0.0,0.0 L 5.0,-5.0 L -12.5,0.0 L 5.0,5.0 L 0.0,0.0 z "
         style="fill-rule:evenodd;stroke:#000000;stroke-width:1pt;stroke-opacity:1;fill:#000000;fill-opacity:1"
         transform="scale(0.8) rotate(180) translate(12.5,0)" />
    </marker>
  </defs>
  <sodipodi:namedview
     id="base"
     pagecolor="#ffffff"
     bordercolor="#666666"
     borderopacity="1.0"
     inkscape:pageopacity="0.0"
     inkscape:pageshadow="2"
     inkscape:zoom="1.584"
     inkscape:cx="250"
     inkscape:cy="250"
     inkscape:document-units="px"
     inkscape:current-layer="layer1"
     showgrid="false"
     units="px"
     inkscape:window-width="1680"
     inkscape:window-height="1005"
     inkscape:window-x="0"
     inkscape:window-y="1"
     inkscape:window-maximized="1"
     inkscape:object-paths="true"
     inkscape:object-nodes="false" />
  <metadata
     id="metadata5">
    <rdf:RDF>
      <cc:Work
         rdf:about="">
        <dc:format>image/svg+xml</dc:format>
        <dc:type
           rdf:resource="http://purl.org/dc/dcmitype/StillImage" />
        <dc:title />
      </cc:Work>
    </rdf:RDF>
  </metadata>
  <g
     inkscape:label="Layer 1"
     inkscape:groupmode="layer"
     id="layer1"
     transform="translate(0,-164.70832)">
    <g
       id="g6016"
       transform="translate(224.81492,97.217262)"
       style="fill:#467abf;fill-opacity:1">
      <circle
         style="opacity:1;fill:#467abf;fill-opacity:1;stroke:#000000;stroke-width:0.13442993;stroke-linejoin:bevel;stroke-miterlimit:4;stroke-dasharray:none;stroke-opacity:1"
         id="circle3839"
         cx="-205.10547"
         cy="-80.406052"
         r="5.3099823"
         transform="rotate(-118.31601)" />
      <path
         style="fill:#467abf;stroke:#000000;stroke-width:0.13442993;stroke-linecap:butt;stroke-linejoin:miter;stroke-miterlimit:4;stroke-dasharray:none;stroke-opacity:1;marker-end:url(#marker1780);fill-opacity:1"
         d="M 23.947134,213.96032 18.303763,203.4653"
         id="path3841"
         inkscape:connector-curvature="0" />
    </g>
    <g
       id="g6006"
       transform="translate(48.05626,129.25477)"
       style="fill:#467abf;fill-opacity:1">
      <circle
         r="5.3099823"
         cy="210.71677"
         cx="32.244736"
         id="circle3843"
         style="opacity:1;fill:#467abf;fill-opacity:1;stroke:#000000;stroke-width:0.13442993;stroke-linejoin:bevel;stroke-miterlimit:4;stroke-dasharray:none;stroke-opacity:1"
         transform="rotate(-2.0595295)" />
      <path
         inkscape:connector-curvature="0"
         id="path3845"
         d="m 45.170337,209.32867 18.999775,-0.68326"
         style="fill:#467abf;stroke:#000000;stroke-width:0.13442993;stroke-linecap:butt;stroke-linejoin:miter;stroke-miterlimit:4;stroke-dasharray:none;stroke-opacity:1;marker-end:url(#marker1576);fill-opacity:1" />
    </g>
    <g
       id="g6036"
       transform="translate(49.161002,159.08279)"
       style="fill:#467abf;fill-opacity:1">
      <circle
         style="opacity:1;fill:#467abf;fill-opacity:1;stroke:#000000;stroke-width:0.13442993;stroke-linejoin:bevel;stroke-miterlimit:4;stroke-dasharray:none;stroke-opacity:1"
         id="circle3847"
         cx="132.2663"
         cy="-143.21762"
         r="5.3099818"
         transform="rotate(132.04947)" />
      <path
         style="fill:#467abf;stroke:#000000;stroke-width:0.13442993;stroke-linecap:butt;stroke-linejoin:miter;stroke-miterlimit:4;stroke-dasharray:none;stroke-opacity:1;marker-end:url(#marker1390);fill-opacity:1"
         d="m 14.125403,198.16853 -4.429594,4.92368"
         id="path3849"
         inkscape:connector-curvature="0" />
    </g>
    <g
       id="g6041"
       transform="translate(283.9186,36.456473)"
       style="fill:#467abf;fill-opacity:1">
      <g
         id="g3855"
         transform="matrix(0.09465503,-0.09545591,0.09545591,0.09465503,-36.520484,128.61519)"
         style="fill:#467abf;fill-opacity:1">
        <circle
           style="opacity:1;fill:#467abf;fill-opacity:1;stroke:#000000;stroke-width:1;stroke-linejoin:bevel;stroke-miterlimit:4;stroke-dasharray:none;stroke-opacity:1"
           id="circle3851"
           cx="40"
           cy="624.70831"
           r="39.5" />
        <path
           style="fill:#467abf;stroke:#000000;stroke-width:1;stroke-linecap:butt;stroke-linejoin:miter;stroke-miterlimit:4;stroke-dasharray:none;stroke-opacity:1;marker-end:url(#Arrow1Lend);fill-opacity:1"
           d="M 80,624.70834 H 180"
           id="path3853"
           inkscape:connector-curvature="0" />
      </g>
    </g>
    <g
       id="g6026"
       transform="translate(159.08279,262.37613)"
       style="fill:#467abf;fill-opacity:1">
      <circle
         style="opacity:1;fill:#467abf;fill-opacity:1;stroke:#000000;stroke-width:0.13442993;stroke-linejoin:bevel;stroke-miterlimit:4;stroke-dasharray:none;stroke-opacity:1"
         id="circle3857"
         cx="-178.6458"
         cy="-84.124664"
         r="5.3099818"
         transform="rotate(-132.20602)" />
      <path
         style="fill:#467abf;stroke:#000000;stroke-width:0.13442993;stroke-linecap:butt;stroke-linejoin:miter;stroke-miterlimit:4;stroke-dasharray:none;stroke-opacity:1;marker-end:url(#marker1684);fill-opacity:1"
         d="m 54.069861,184.84185 -6.609478,-7.294"
         id="path3859"
         inkscape:connector-curvature="0" />
    </g>
    <g
       transform="translate(330.31775,377.82163)"
       id="g6049"
       style="fill:#467abf;fill-opacity:1">
      <g
         transform="matrix(0.09465503,-0.09545591,0.09545591,0.09465503,-36.520484,128.61519)"
         id="g6047"
         style="fill:#467abf;fill-opacity:1">
        <circle
           r="39.5"
           cy="624.70831"
           cx="40"
           id="circle6043"
           style="opacity:1;fill:#467abf;fill-opacity:1;stroke:#000000;stroke-width:1;stroke-linejoin:bevel;stroke-miterlimit:4;stroke-dasharray:none;stroke-opacity:1" />
        <path
           inkscape:connector-curvature="0"
           id="path6045"
           d="M 80,624.70834 H 180"
           style="fill:#467abf;stroke:#000000;stroke-width:1;stroke-linecap:butt;stroke-linejoin:miter;stroke-miterlimit:4;stroke-dasharray:none;stroke-opacity:1;marker-end:url(#Arrow1Lend);fill-opacity:1" />
      </g>
    </g>
    <g
       transform="translate(401.0212,319.82269)"
       id="g6055"
       style="fill:#467abf;fill-opacity:1">
      <circle
         transform="rotate(-132.20602)"
         r="5.3099818"
         cy="-84.124664"
         cx="-178.6458"
         id="circle6051"
         style="opacity:1;fill:#467abf;fill-opacity:1;stroke:#000000;stroke-width:0.13442993;stroke-linejoin:bevel;stroke-miterlimit:4;stroke-dasharray:none;stroke-opacity:1" />
      <path
         inkscape:connector-curvature="0"
         id="path6053"
         d="m 54.069861,184.84185 -6.609478,-7.294"
         style="fill:#467abf;stroke:#000000;stroke-width:0.13442993;stroke-linecap:butt;stroke-linejoin:miter;stroke-miterlimit:4;stroke-dasharray:none;stroke-opacity:1;marker-end:url(#marker1684);fill-opacity:1" />
    </g>
    <g
       transform="translate(49.161003,384.45008)"
       id="g6061"
       style="fill:#467abf;fill-opacity:1">
      <circle
         transform="rotate(-118.31601)"
         r="5.3099823"
         cy="-80.406052"
         cx="-205.10547"
         id="circle6057"
         style="opacity:1;fill:#467abf;fill-opacity:1;stroke:#000000;stroke-width:0.13442993;stroke-linejoin:bevel;stroke-miterlimit:4;stroke-dasharray:none;stroke-opacity:1" />
      <path
         inkscape:connector-curvature="0"
         id="path6059"
         d="M 23.947134,213.96032 18.303763,203.4653"
         style="fill:#467abf;stroke:#000000;stroke-width:0.13442993;stroke-linecap:butt;stroke-linejoin:miter;stroke-miterlimit:4;stroke-dasharray:none;stroke-opacity:1;marker-end:url(#marker1780);fill-opacity:1" />
    </g>
    <g
       transform="translate(56.894193,8.8379302)"
       id="g6067"
       style="fill:#467abf;fill-opacity:1">
      <circle
         transform="rotate(132.04947)"
         r="5.3099818"
         cy="-143.21762"
         cx="132.2663"
         id="circle6063"
         style="opacity:1;fill:#467abf;fill-opacity:1;stroke:#000000;stroke-width:0.13442993;stroke-linejoin:bevel;stroke-miterlimit:4;stroke-dasharray:none;stroke-opacity:1" />
      <path
         inkscape:connector-curvature="0"
         id="path6065"
         d="m 14.125403,198.16853 -4.429594,4.92368"
         style="fill:#467abf;stroke:#000000;stroke-width:0.13442993;stroke-linecap:butt;stroke-linejoin:miter;stroke-miterlimit:4;stroke-dasharray:none;stroke-opacity:1;marker-end:url(#marker1390);fill-opacity:1" />
    </g>
    <g
       transform="translate(386.65956,115.4455)"
       id="g6073"
       style="fill:#467abf;fill-opacity:1">
      <circle
         transform="rotate(-132.20602)"
         r="5.3099818"
         cy="-84.124664"
         cx="-178.6458"
         id="circle6069"
         style="opacity:1;fill:#467abf;fill-opacity:1;stroke:#000000;stroke-width:0.13442993;stroke-linejoin:bevel;stroke-miterlimit:4;stroke-dasharray:none;stroke-opacity:1" />
      <path
         inkscape:connector-curvature="0"
         id="path6071"
         d="m 54.069861,184.84185 -6.609478,-7.294"
         style="fill:#467abf;stroke:#000000;stroke-width:0.13442993;stroke-linecap:butt;stroke-linejoin:miter;stroke-miterlimit:4;stroke-dasharray:none;stroke-opacity:1;marker-end:url(#marker1684);fill-opacity:1" />
    </g>
    <g
       id="g6325"
       transform="translate(517.01908,86.169846)"
       style="fill:#467abf;fill-opacity:1">
      <circle
         transform="rotate(-132.20602)"
         r="39.5"
         cy="-366.07025"
         cx="-157.22247"
         id="circle5046"
         style="opacity:1;fill:#467abf;fill-opacity:1;stroke:#000000;stroke-width:1;stroke-linejoin:bevel;stroke-miterlimit:4;stroke-dasharray:none;stroke-opacity:1" />
      <path
         inkscape:connector-curvature="0"
         id="path5048"
         d="m -192.54257,332.6154 -49.16671,-54.25878"
         style="fill:#467abf;stroke:#000000;stroke-width:1;stroke-linecap:butt;stroke-linejoin:miter;stroke-miterlimit:4;stroke-dasharray:none;stroke-opacity:1;marker-end:url(#marker1684-9);fill-opacity:1" />
    </g>
    <g
       id="g8110"
       style="fill:none;fill-opacity:1">
      <path
         inkscape:connector-curvature="0"
         id="path6331"
         d="m 305.26512,339.61684 129.44284,-49.70016 v 0 0"
         style="fill:none;stroke:#646464;stroke-width:1;stroke-linecap:butt;stroke-linejoin:miter;stroke-opacity:1;stroke-miterlimit:4;stroke-dasharray:2, 6;stroke-dashoffset:0;fill-opacity:1" />
      <circle
         r="85.065102"
         cy="420.56042"
         cx="331.42249"
         id="path6327"
         style="opacity:1;fill:none;fill-opacity:1;stroke:#000000;stroke-width:1;stroke-linejoin:bevel;stroke-miterlimit:4;stroke-dasharray:1, 1;stroke-opacity:1;stroke-dashoffset:0" />
      <circle
         style="opacity:1;fill:none;fill-opacity:1;stroke:#000000;stroke-width:1;stroke-linejoin:bevel;stroke-miterlimit:4;stroke-dasharray:1, 1;stroke-dashoffset:0;stroke-opacity:1"
         id="circle6329"
         cx="440.5824"
         cy="301.03885"
         r="12.578223" />
      <path
         inkscape:connector-curvature="0"
         id="path6335"
         d="M 452.31429,305.57475 C 412.55155,446.1367 412.68398,445.71279 412.68398,445.71279"
         style="fill:none;stroke:#646464;stroke-width:1;stroke-linecap:butt;stroke-linejoin:miter;stroke-opacity:1;stroke-miterlimit:4;stroke-dasharray:2, 6;stroke-dashoffset:0;fill-opacity:1" />
    </g>
    <g
       id="g8120"
       transform="rotate(-59.023502,301.06527,660.12596)">
      <path
         style="fill:none;stroke:#646464;stroke-width:1;stroke-linecap:butt;stroke-linejoin:miter;stroke-miterlimit:4;stroke-dasharray:2, 6;stroke-dashoffset:0;stroke-opacity:1"
         d="m 305.26512,339.61684 129.44284,-49.70016 v 0 0"
         id="path8112"
         inkscape:connector-curvature="0" />
      <circle
         style="opacity:1;fill:none;fill-opacity:1;stroke:#000000;stroke-width:1;stroke-linejoin:bevel;stroke-miterlimit:4;stroke-dasharray:1, 1;stroke-dashoffset:0;stroke-opacity:1"
         id="circle8114"
         cx="331.42249"
         cy="420.56042"
         r="85.065102" />
      <circle
         r="12.578223"
         cy="301.03885"
         cx="440.5824"
         id="circle8116"
         style="opacity:1;fill:none;fill-opacity:1;stroke:#000000;stroke-width:1;stroke-linejoin:bevel;stroke-miterlimit:4;stroke-dasharray:1, 1;stroke-dashoffset:0;stroke-opacity:1" />
      <path
         style="fill:none;stroke:#646464;stroke-width:1;stroke-linecap:butt;stroke-linejoin:miter;stroke-miterlimit:4;stroke-dasharray:2, 6;stroke-dashoffset:0;stroke-opacity:1"
         d="M 452.31429,305.57475 C 412.55155,446.1367 412.68398,445.71279 412.68398,445.71279"
         id="path8118"
         inkscape:connector-curvature="0" />
    </g>
    <ellipse
       style="opacity:1;fill:#467abf;fill-opacity:1;stroke:#000000;stroke-width:1.00000026;stroke-linejoin:bevel;stroke-miterlimit:4;stroke-dasharray:none;stroke-opacity:1"
       id="circle8122"
       cx="279.2049"
       cy="-421.17343"
       transform="matrix(-0.67015212,0.74222378,-0.74290962,-0.66939174,0,0)"
       rx="43.820808"
       ry="43.825447" />
    <path
       style="fill:none;stroke:#000000;stroke-width:1;stroke-linecap:butt;stroke-linejoin:miter;stroke-miterlimit:4;stroke-dasharray:none;stroke-opacity:1;marker-end:url(#marker8132)"
       d="M 95.769142,522.39509 59.19302,563.00916"
       id="path8124"
       inkscape:connector-curvature="0" />
  </g>
</svg>
